…
``` r
width_data %>%
  group_by(n_tosses) %>%
  mutate(
    avg = mean(width)
  ) %>%
  filter(avg <= .05) %>%
  select(n_tosses, avg) %>%
  distinct()
```

    ## # A tibble: 290 x 2
    ## # Groups:   n_tosses [290]
    ##    n_tosses    avg
    ##       <int>  <dbl>
    ##  1     2171 0.0499
    ##  2     2186 0.0500
    ##  3     2197 0.0500
    ##  4     2199 0.0499
    ##  5     2204 0.0500
    ##  6     2206 0.0498
    ##  7     2207 0.0499
    ##  8     2208 0.0495
    ##  9     2210 0.0494
    ## 10     2211 0.0498
    ## # ... with 280 more rows
…
